Salary
…
sum((multiple$duration/60. > 4000)) ## 263 

## [1] 263

sum((multiple$duration/60. < 4)) ## 2592 

## [1] 3266

multiple[multiple$duration/60. < 3, 11:25]

## # A tibble: 2,592 x 15
##    Q10   Q11_Part_1 Q11_Part_2 Q11_Part_3 Q11_Part_4 Q11_Part_5 Q11_Part_6
##    <chr> <chr>      <chr>      <chr>      <chr>      <chr>      <chr>     
##  1 ""    ""         ""         ""         ""         ""         ""        
##  2 ""    ""         ""         ""         ""         ""         ""        
##  3 ""    ""         ""         ""         ""         ""         ""        
##  4 ""    ""         ""         ""         ""         ""         ""        
##  5 ""    ""         ""         ""         ""         ""         ""        
##  6 ""    ""         ""         ""         ""         ""         ""        
##  7 ""    ""         ""         ""         ""         ""         ""        
##  8 "I d~ ""         ""         ""         "Build pr~ "Do resea~ ""        
##  9 "We ~ ""         ""         ""         ""         ""         ""        
## 10 "No ~ ""         ""         ""         ""         ""         "None of ~
## # ... with 2,582 more rows, and 8 more variables: Q11_Part_7 <chr>,
## #   Q12_Part_1_TEXT <chr>, Q12_Part_2_TEXT <chr>, Q12_Part_3_TEXT <chr>,
## #   Q12_Part_4_TEXT <chr>, Q12_Part_5_TEXT <chr>, Q13_Part_1 <chr>,
## #   Q13_Part_2 <chr>
…
## 2592
##  NA .

multiple[multiple$duration/60. < 4, 300:310]

## # A tibble: 3,266 x 11
##    Q44_Part_4 Q44_Part_5 Q44_Part_6 Q45_Part_1 Q45_Part_2 Q45_Part_3 Q45_Part_4
##    <chr>      <chr>      <chr>      <chr>      <chr>      <chr>      <chr>     
##  1 ""         ""         ""         ""         ""         ""         ""        
##  2 ""         ""         ""         ""         ""         ""         ""        
##  3 ""         ""         ""         ""         ""         ""         ""        
##  4 ""         ""         ""         ""         ""         ""         ""        
##  5 ""         ""         ""         ""         ""         ""         ""        
##  6 ""         ""         ""         ""         ""         ""         ""        
##  7 ""         ""         ""         ""         ""         ""         ""        
##  8 ""         ""         ""         ""         ""         ""         ""        
##  9 ""         ""         ""         ""         ""         ""         ""        
## 10 ""         ""         ""         ""         ""         ""         ""        
## # ... with 3,256 more rows, and 4 more variables: Q45_Part_5 <chr>,
## #   Q45_Part_6 <chr>, Q46 <chr>, Q47_Part_1 <chr>

multiple[multiple$duration/60. < 4, 12:25]

## # A tibble: 3,266 x 14
##    Q11_Part_1 Q11_Part_2 Q11_Part_3 Q11_Part_4 Q11_Part_5 Q11_Part_6 Q11_Part_7
##    <chr>      <chr>      <chr>      <chr>      <chr>      <chr>      <chr>     
##  1 ""         ""         ""         ""         ""         ""         ""        
##  2 ""         ""         ""         ""         ""         ""         ""        
##  3 ""         ""         ""         ""         ""         ""         ""        
##  4 ""         ""         ""         ""         ""         ""         ""        
##  5 "Analyze ~ ""         ""         ""         "Do resea~ ""         ""        
##  6 ""         ""         ""         ""         ""         ""         ""        
##  7 ""         ""         ""         ""         ""         ""         ""        
##  8 ""         ""         ""         ""         ""         ""         ""        
##  9 ""         ""         ""         ""         ""         ""         ""        
## 10 ""         ""         ""         "Build pr~ "Do resea~ ""         ""        
## # ... with 3,256 more rows, and 7 more variables: Q12_Part_1_TEXT <chr>,
## #   Q12_Part_2_TEXT <chr>, Q12_Part_3_TEXT <chr>, Q12_Part_4_TEXT <chr>,
## #   Q12_Part_5_TEXT <chr>, Q13_Part_1 <chr>, Q13_Part_2 <chr>
…
## No data available 

multiple[multiple$duration/60. > 4000, 11:25]

## # A tibble: 263 x 15
##    Q10   Q11_Part_1 Q11_Part_2 Q11_Part_3 Q11_Part_4 Q11_Part_5 Q11_Part_6
##    <chr> <chr>      <chr>      <chr>      <chr>      <chr>      <chr>     
##  1 We a~ "Analyze ~ ""         ""         "Build pr~ ""         ""        
##  2 No (~ "Analyze ~ ""         ""         ""         ""         ""        
##  3 We r~ ""         "Build an~ ""         ""         ""         ""        
##  4 We r~ ""         "Build an~ ""         ""         "Do resea~ ""        
##  5 I do~ ""         ""         ""         ""         ""         "None of ~
##  6 We u~ ""         ""         ""         ""         ""         "None of ~
##  7 We a~ ""         ""         ""         ""         ""         "None of ~
##  8 We r~ ""         ""         ""         ""         ""         "None of ~
##  9 We a~ ""         ""         ""         "Build pr~ ""         ""        
## 10 I do~ ""         ""         ""         ""         ""         "None of ~
## # ... with 253 more rows, and 8 more variables: Q11_Part_7 <chr>,
## #   Q12_Part_1_TEXT <chr>, Q12_Part_2_TEXT <chr>, Q12_Part_3_TEXT <chr>,
## #   Q12_Part_4_TEXT <chr>, Q12_Part_5_TEXT <chr>, Q13_Part_1 <chr>,
## #   Q13_Part_2 <chr>
…
##   data  . 

multiple[multiple$duration/60. > 4000, 300:310]

## # A tibble: 263 x 11
##    Q44_Part_4 Q44_Part_5 Q44_Part_6 Q45_Part_1 Q45_Part_2 Q45_Part_3 Q45_Part_4
##    <chr>      <chr>      <chr>      <chr>      <chr>      <chr>      <chr>     
##  1 ""         ""         ""         ""         ""         ""         ""        
##  2 ""         ""         ""         ""         ""         ""         ""        
##  3 "Difficul~ ""         ""         "Only for~ ""         ""         ""        
##  4 ""         ""         "I have n~ ""         ""         ""         ""        
##  5 ""         ""         ""         ""         ""         ""         "When bui~
##  6 ""         ""         ""         "Only for~ ""         ""         ""        
##  7 ""         ""         ""         "Only for~ "For all ~ ""         ""        
##  8 ""         ""         ""         ""         ""         ""         ""        
##  9 ""         ""         ""         ""         "For all ~ ""         ""        
## 10 "Difficul~ ""         ""         ""         "For all ~ "When det~ "When bui~
## # ... with 253 more rows, and 4 more variables: Q45_Part_5 <chr>,
## #   Q45_Part_6 <chr>, Q46 <chr>, Q47_Part_1 <chr>
…
